Seminario de Fuentes de datos biomédicas y web semántica
…
Datos de Enfermedades

Importación de los datos

Lo primero que realizamos es la importación de los datos de las
enfermedades, lo hacemos a través de un archivo csv.

X49971 <- read_delim("input/data/Enfermedades/49971.csv", 
    delim = "\t", escape_double = FALSE, 
    trim_ws = TRUE)
print(X49971)

## # A tibble: 214,200 × 7
##    Nacional       Comunidades y Ciudades Aut…¹ Causa…² Sexo  Lugar…³   año Total
##    <chr>          <chr>                        <chr>   <chr> <chr>   <dbl> <chr>
##  1 Total nacional <NA>                         001-10… Total Total    2020 493.…
##  2 Total nacional <NA>                         001-10… Total Total    2019 418.…
##  3 Total nacional <NA>                         001-10… Total Total    2018 427.…
##  4 Total nacional <NA>                         001-10… Total Total    2017 424.…
##  5 Total nacional <NA>                         001-10… Total Total    2016 410.…
##  6 Total nacional <NA>                         001-10… Total Centro…  2020 266.…
##  7 Total nacional <NA>                         001-10… Total Centro…  2019 230.…
##  8 Total nacional <NA>                         001-10… Total Centro…  2018 231.…
##  9 Total nacional <NA>                         001-10… Total Centro…  2017 226.…
## 10 Total nacional <NA>                         001-10… Total Centro…  2016 219.…
## # … with 214,190 more rows, and abbreviated variable names
## #   ¹​`Comunidades y Ciudades Autónomas`, ²​`Causa de muerte (lista reducida)`,
## #   ³​`Lugar de ocurrencia`
Con el bloque de codigo anterior obtenemos una tabla con 7 columnas:
Nacional, Comunidades y ciudades autónomas, Causa de Muerte, Sexo, Lugar
de Ocurrencia, Año y Total. Obtemos un total de 214,200 entradas. Esta
tabla va a ser necesario modificarla para su posterior comparación. Lo
que vamos hacer es cambiar el nombre de algunas columnas para evitar
confusiones y que el acceso sea más facil.

Cambios en el nombre de columna

#Cambiar nombre de las columnas de la base de datos de las enfermedades para su mas facil acceso
colnames(X49971)<- c('Nacional','CCAA','Causa_muerte','Sexo','Lugar','AÑO','Total')
Enfermedades <- X49971
print(Enfermedades)

## # A tibble: 214,200 × 7
##    Nacional       CCAA  Causa_muerte                    Sexo  Lugar    AÑO Total
##    <chr>          <chr> <chr>                           <chr> <chr>  <dbl> <chr>
##  1 Total nacional <NA>  001-102 I-XXII.Todas las causas Total Total   2020 493.…
##  2 Total nacional <NA>  001-102 I-XXII.Todas las causas Total Total   2019 418.…
##  3 Total nacional <NA>  001-102 I-XXII.Todas las causas Total Total   2018 427.…
##  4 Total nacional <NA>  001-102 I-XXII.Todas las causas Total Total   2017 424.…
##  5 Total nacional <NA>  001-102 I-XXII.Todas las causas Total Total   2016 410.…
##  6 Total nacional <NA>  001-102 I-XXII.Todas las causas Total Centr…  2020 266.…
##  7 Total nacional <NA>  001-102 I-XXII.Todas las causas Total Centr…  2019 230.…
##  8 Total nacional <NA>  001-102 I-XXII.Todas las causas Total Centr…  2018 231.…
##  9 Total nacional <NA>  001-102 I-XXII.Todas las causas Total Centr…  2017 226.…
## 10 Total nacional <NA>  001-102 I-XXII.Todas las causas Total Centr…  2016 219.…
## # … with 214,190 more rows
…
                            CCAA == "Castilla-La Mancha"  ~ "CASTILLA-LA MANCHA",
                            CCAA == "Cataluña"  ~ "CATALUÑA",
                            CCAA == "Comunitat Valenciana"  ~ "COMUNIDAD VALENCIANA",
                            CCAA == "Extremadura"  ~ "EXTREMADURA",
                            CCAA == "Galicia"  ~ "GALICIA",
                            CCAA == "Madrid, Comunidad de"  ~ "MADRID",
                            CCAA == "Murcia, Región de"  ~ "MURCIA (REGIÓN DE)",
                            CCAA == "Navarra, Comunidad Foral de"  ~ "NAVARRA (COMUNIDAD FORAL)",
                            CCAA == "País Vasco"  ~ "PAÍS VASCO",
                            CCAA == "Rioja, La"  ~ "RIOJA (LA)",
                            CCAA == "Ceuta"  ~ "CEUTA",
                            CCAA == "Melilla"  ~ "MELILLA"))
print(Enfermedades)

## # A tibble: 214,200 × 8
##    Nacional       CCAA  Causa_muerte              Sexo  Lugar   AÑO Total N_CCAA
##    <chr>          <chr> <chr>                     <chr> <chr> <dbl> <chr> <chr> 
##  1 Total nacional <NA>  001-102 I-XXII.Todas las… Total Total  2020 493.… <NA>  
##  2 Total nacional <NA>  001-102 I-XXII.Todas las… Total Total  2019 418.… <NA>  
##  3 Total nacional <NA>  001-102 I-XXII.Todas las… Total Total  2018 427.… <NA>  
##  4 Total nacional <NA>  001-102 I-XXII.Todas las… Total Total  2017 424.… <NA>  
##  5 Total nacional <NA>  001-102 I-XXII.Todas las… Total Total  2016 410.… <NA>  
##  6 Total nacional <NA>  001-102 I-XXII.Todas las… Total Cent…  2020 266.… <NA>  
##  7 Total nacional <NA>  001-102 I-XXII.Todas las… Total Cent…  2019 230.… <NA>  
##  8 Total nacional <NA>  001-102 I-XXII.Todas las… Total Cent…  2018 231.… <NA>  
##  9 Total nacional <NA>  001-102 I-XXII.Todas las… Total Cent…  2017 226.… <NA>  
## 10 Total nacional <NA>  001-102 I-XXII.Todas las… Total Cent…  2016 219.… <NA>  
## # … with 214,190 more rows
…
Ni_DD_2020 <- read_delim("input/data/calidad del aire/2020/Ni_DD_2020.csv", 
                         delim = ";", escape_double = FALSE, trim_ws = TRUE)

Pb_DD_2020 <- read_delim("input/data/calidad del aire/2020/Pb_DD_2020.csv", 
                         delim = ";", escape_double = FALSE, trim_ws = TRUE)

PM10_DD_2020 <- read_delim("input/data/calidad del aire/2020/PM10_DD_2020.csv", 
                           delim = ";", escape_double = FALSE, trim_ws = TRUE)

PM25_DD_2020 <- read_delim("input/data/calidad del aire/2020/PM25_DD_2020.csv", 
                           delim = ";", escape_double = FALSE, trim_ws = TRUE)
print(As_DD_2020)

## # A tibble: 1,432 × 38
##    PROVINCIA MUNIC…¹ ESTAC…² MAGNI…³ PUNTO…⁴  ANNO   MES   D01   D02   D03   D04
##        <dbl>   <dbl>   <dbl>   <dbl> <chr>   <dbl> <dbl> <dbl> <dbl> <dbl> <dbl>
##  1        12       5       4      17 120050…  2021     1  2.37 NA    NA    NA   
##  2        12       5       4      17 120050…  2021     2 NA    NA     0.69 NA   
##  3        12       5       4      17 120050…  2021     3 NA    NA    NA    NA   
##  4        12       5       4      17 120050…  2021     4 NA    NA    NA    NA   
##  5        12       5       4      17 120050…  2021     5 NA    NA    NA    NA   
##  6        12       5       4      17 120050…  2021     6 NA    NA    NA    NA   
##  7        12       5       4      17 120050…  2021     7 NA    NA    NA    NA   
##  8        12       5       4      17 120050…  2021     8 NA    NA    NA    NA   
##  9        12       5       4      17 120050…  2021     9 NA     0.46 NA    NA   
## 10        12       5       4      17 120050…  2021    10 NA    NA    NA     0.42
## # … with 1,422 more rows, 27 more variables: D05 <dbl>, D06 <dbl>, D07 <dbl>,
## #   D08 <dbl>, D09 <dbl>, D10 <dbl>, D11 <dbl>, D12 <dbl>, D13 <dbl>,
## #   D14 <dbl>, D15 <dbl>, D16 <dbl>, D17 <dbl>, D18 <dbl>, D19 <dbl>,
## #   D20 <dbl>, D21 <dbl>, D22 <dbl>, D23 <dbl>, D24 <dbl>, D25 <dbl>,
## #   D26 <dbl>, D27 <dbl>, D28 <dbl>, D29 <dbl>, D30 <dbl>, D31 <dbl>, and
## #   abbreviated variable names ¹​MUNICIPIO, ²​ESTACION, ³​MAGNITUD,
## #   ⁴​PUNTO_MUESTREO
…
tablaPM25_2020 <- select(.data = PM25_DD_2020, PROVINCIA, ANNO, D01:D31)

tablaPM25_2020 <- mutate(tablaPM25_2020, AÑO = 2020)

tabPM25_2020 <- tablaPM25_2020 %>%
  group_by(PROVINCIA,AÑO) %>%
  summarise(across(c(D01:D31), ~ mean(.x, na.rm = TRUE)))

tabPM25_2020$PM_25 <- apply(tabPM25_2020[ ,c(3:33)], 1, mean, na.rm = TRUE)

tabPM25_2020 <- select(.data = tabPM25_2020, PROVINCIA, AÑO, PM_25)

print(tabAS_2020)

## # A tibble: 44 × 3
## # Groups:   PROVINCIA [44]
##    PROVINCIA   AÑO ARSENICO
##        <dbl> <dbl>    <dbl>
##  1         1  2020    0.353
##  2         2  2020    0.386
##  3         3  2020    0.204
##  4         4  2020    0.392
##  5         5  2020    0.235
##  6         6  2020    0.358
##  7         7  2020    0.350
##  8         8  2020    0.922
##  9         9  2020    0.146
## 10        10  2020    0.155
## # … with 34 more rows
…
#union de los datos
join2020.1 <- full_join (x=tabAS_2020,y=tabBaP_2020, by=c("PROVINCIA","AÑO"))

join2020.2 <- full_join (x=join2020.1,y=tabCd_2020, by=c("PROVINCIA","AÑO"))

join2020.3 <- full_join (x=join2020.2,y=tabNi_2020, by=c("PROVINCIA","AÑO"))

join2020.4 <- full_join (x=join2020.3,y=tabPb_2020, by=c("PROVINCIA","AÑO"))

join2020.5 <- full_join (x=join2020.4,y=tabPM10_2020, by=c("PROVINCIA","AÑO"))

join2020.6 <- full_join (x=join2020.5,y=tabPM25_2020, by=c("PROVINCIA","AÑO"))
print (join2020.6)

## # A tibble: 47 × 9
## # Groups:   PROVINCIA [47]
##    PROVINCIA   AÑO ARSENICO BENZOPIRENO CADMIO NIQUEL   PLOMO PM_10 PM_25
##        <dbl> <dbl>    <dbl>       <dbl>  <dbl>  <dbl>   <dbl> <dbl> <dbl>
##  1         1  2020    0.353     0.0682  0.251   2.33  0.0144   11.7 NA   
##  2         2  2020    0.386     0.0253  0.0525  0.511 0.00156  NA   NA   
##  3         3  2020    0.204     0.0711  0.0537  1.68  0.00994  17.5 11.9 
##  4         4  2020    0.392     0.129   0.142   2.96  0.00443  23.4  7.47
##  5         5  2020    0.235    NA       0.100   1.85  0.00116  13.4 NA   
##  6         6  2020    0.358     0.0264  0.0497  2.27  0.00148  14.3  9.00
##  7         7  2020    0.350     0.0955  0.0899  2.63  0.00310  16.8  5.42
##  8         8  2020    0.922     0.177   0.345   2.83  0.0109   21.9 12.0 
##  9         9  2020    0.146    NA       0.0752  2.23  0.00258  10.0  6.98
## 10        10  2020    0.155     0.00912 0.0253  2.08  0.00105  11.1  7.43
## # … with 37 more rows
…
tablaPM25_2017 <- select(.data = PM2_5_DD_2017, PROVINCIA, ANNO, D01:D31)

tablaPM25_2017 <-rename(.data = tablaPM25_2017, AÑO = ANNO)

tabPM25_2017 <- tablaPM25_2017 %>%
  group_by(PROVINCIA,AÑO) %>%
  summarise(across(c(D01:D31), ~ mean(.x, na.rm = TRUE)))

tabPM25_2017$PM_25 <- apply(tabPM25_2017[ ,c(3:33)], 1, mean, na.rm = TRUE)

tabPM25_2017 <- select(.data = tabPM25_2017, PROVINCIA, AÑO, PM_25)
print(tabPM25_2017)

## # A tibble: 45 × 3
## # Groups:   PROVINCIA [45]
##    PROVINCIA   AÑO PM_25
##        <dbl> <dbl> <dbl>
##  1         1  2017  7.55
##  2         2  2017 11.3 
##  3         3  2017  9.82
##  4         4  2017  9.60
##  5         6  2017  7.59
##  6         7  2017  6.65
##  7         8  2017 14.5 
##  8         9  2017  6.14
##  9        10  2017  6.62
## 10        11  2017 12.9 
## # … with 35 more rows
…
#union de todas las tablas de años creadas anteriormente

Calidad1 <- union_all(join2020.6,join2019.6)

Calidad2 <- union_all(Calidad1,join2018.6)

Calidad3 <- union_all(Calidad2,join2017.6)

Calidad4 <- union_all(Calidad3,join2016.6)

print(Calidad4)

## # A tibble: 236 × 9
## # Groups:   PROVINCIA [51]
##    PROVINCIA   AÑO ARSENICO BENZOPIRENO CADMIO NIQUEL   PLOMO PM_10 PM_25
##        <dbl> <dbl>    <dbl>       <dbl>  <dbl>  <dbl>   <dbl> <dbl> <dbl>
##  1         1  2020    0.353     0.0682  0.251   2.33  0.0144   11.7 NA   
##  2         2  2020    0.386     0.0253  0.0525  0.511 0.00156  NA   NA   
##  3         3  2020    0.204     0.0711  0.0537  1.68  0.00994  17.5 11.9 
##  4         4  2020    0.392     0.129   0.142   2.96  0.00443  23.4  7.47
##  5         5  2020    0.235    NA       0.100   1.85  0.00116  13.4 NA   
##  6         6  2020    0.358     0.0264  0.0497  2.27  0.00148  14.3  9.00
##  7         7  2020    0.350     0.0955  0.0899  2.63  0.00310  16.8  5.42
##  8         8  2020    0.922     0.177   0.345   2.83  0.0109   21.9 12.0 
##  9         9  2020    0.146    NA       0.0752  2.23  0.00258  10.0  6.98
## 10        10  2020    0.155     0.00912 0.0253  2.08  0.00105  11.1  7.43
## # … with 226 more rows
…
Hacemos un full_join a partir de la columna PROVINCIA.

#cambiar el número de la provincia por el nombre de la provincia y la comunidad.
library(readxl)
provincia_con_numero <- read_excel("input/data/calidad del aire/provincia con numero.xlsx", 
                                   sheet = "Estaciones evaluación 2019")

calidadFinal = full_join (x=Calidad4, y=provincia_con_numero, by=c("PROVINCIA"))

print(calidadFinal)

## # A tibble: 236 × 11
## # Groups:   PROVINCIA [51]
##    PROVINCIA   AÑO ARSENICO BENZOPIRENO CADMIO NIQUEL   PLOMO PM_10 PM_25 N_CCAA
##        <dbl> <dbl>    <dbl>       <dbl>  <dbl>  <dbl>   <dbl> <dbl> <dbl> <chr> 
##  1         1  2020    0.353     0.0682  0.251   2.33  0.0144   11.7 NA    PAÍS …
##  2         2  2020    0.386     0.0253  0.0525  0.511 0.00156  NA   NA    CASTI…
##  3         3  2020    0.204     0.0711  0.0537  1.68  0.00994  17.5 11.9  COMUN…
##  4         4  2020    0.392     0.129   0.142   2.96  0.00443  23.4  7.47 ANDAL…
##  5         5  2020    0.235    NA       0.100   1.85  0.00116  13.4 NA    CASTI…
##  6         6  2020    0.358     0.0264  0.0497  2.27  0.00148  14.3  9.00 EXTRE…
##  7         7  2020    0.350     0.0955  0.0899  2.63  0.00310  16.8  5.42 BALEA…
##  8         8  2020    0.922     0.177   0.345   2.83  0.0109   21.9 12.0  CATAL…
##  9         9  2020    0.146    NA       0.0752  2.23  0.00258  10.0  6.98 CASTI…
## 10        10  2020    0.155     0.00912 0.0253  2.08  0.00105  11.1  7.43 EXTRE…
## # … with 226 more rows, and 1 more variable: N_PROVINCIA <chr>
…
Ahora vamos a hacer una media de nuestros datos de PM 2,5. Buscamos
obtener un valor para cada comunidad y año.

# poner un valor para cada comunidad y año
estudioPM_25<- calidadFinal %>%
  group_by(N_CCAA,AÑO) %>%
  summarise(PM_25 = mean(PM_25, na.rm = TRUE))

print(estudioPM_25)

## # A tibble: 86 × 3
## # Groups:   N_CCAA [18]
##    N_CCAA      AÑO PM_25
##    <chr>     <dbl> <dbl>
##  1 ANDALUCÍA  2016 13.1 
##  2 ANDALUCÍA  2017 14.9 
##  3 ANDALUCÍA  2018 14.7 
##  4 ANDALUCÍA  2019 12.7 
##  5 ANDALUCÍA  2020  9.60
##  6 ARAGÓN     2016  8.64
##  7 ARAGÓN     2017  9.58
##  8 ARAGÓN     2018  8.77
##  9 ARAGÓN     2019  9.47
## 10 ARAGÓN     2020  9.68
## # … with 76 more rows
…
